<?xml version="1.0" encoding="utf-8"?>
<!-- Generator: Adobe Illustrator 16.0.0, SVG Export Plug-In . SVG Version: 6.00 Build 0)  -->
<!DOCTYPE svg PUBLIC "-//W3C//DTD SVG 1.1//EN" "http://www.w3.org/Graphics/SVG/1.1/DTD/svg11.dtd">
<svg version="1.1" id="Capa_1" xmlns="http://www.w3.org/2000/svg" xmlns:xlink="http://www.w3.org/1999/xlink" x="0px" y="0px"
	 width="15px" height="15px" viewBox="0 0 15 15" enable-background="new 0 0 15 15" xml:space="preserve">
<path fill="#FFFFFF" d="M10.583,13.623C9.943,14.431,9.354,15,9.013,15H1.948C0.877,15,0,14.123,0,13.052v-0.173v-0.323v-0.104
	v-1.827V6.276V4.45V4.346V4.128V3.849c0-0.725,0.406-1.352,0.996-1.688v0.066v0.217v0.104v1.827v4.349v1.826v0.104v0.323v0.173
	c0,1.363,1.109,2.473,2.474,2.473h7.065C10.549,13.624,10.565,13.624,10.583,13.623z M15,6.549c-0.004,1.138-3.413,6.55-4.465,6.55
	H3.47c-1.071,0-1.947-0.877-1.947-1.948v-0.173v-0.323V10.55V8.724V4.375V2.548V2.444V2.228V1.948C1.522,0.876,2.398,0,3.47,0h7.065
	C11.606,0,15.003,5.715,15,6.549z M12.886,6.56c0-0.674-0.546-1.22-1.221-1.22c-0.674,0-1.22,0.546-1.22,1.22s0.546,1.22,1.22,1.22
	C12.34,7.78,12.886,7.233,12.886,6.56z"/>
</svg>
