<?xml version="1.0" encoding="utf-8"?>
<!-- Generator: Adobe Illustrator 16.0.0, SVG Export Plug-In . SVG Version: 6.00 Build 0)  -->
<!DOCTYPE svg PUBLIC "-//W3C//DTD SVG 1.1//EN" "http://www.w3.org/Graphics/SVG/1.1/DTD/svg11.dtd">
<svg version="1.1" id="Capa_1" xmlns="http://www.w3.org/2000/svg" xmlns:xlink="http://www.w3.org/1999/xlink" x="0px" y="0px"
	 width="15px" height="15px" viewBox="0 0 15 15" enable-background="new 0 0 15 15" xml:space="preserve">
<path fill="#FFFFFF" d="M13.053,0H1.949C0.877,0,0,0.876,0,1.948v0.601h0.877c0.43,0,0.779,0.35,0.779,0.779v0.268
	c0,0.429-0.35,0.78-0.779,0.78H0v2.211h0.877c0.43,0,0.779,0.351,0.779,0.779v0.268c0,0.429-0.35,0.779-0.779,0.779H0v2.212h0.877
	c0.43,0,0.779,0.351,0.779,0.779v0.268c0,0.429-0.35,0.779-0.779,0.779H0v0.601C0,14.123,0.877,15,1.949,15h11.104
	C14.123,15,15,14.123,15,13.052V1.948C15,0.876,14.123,0,13.053,0z M11.723,10.622c0,0-0.314,0.291-0.422,0.382
	c-0.891,0.751-2.248,0.629-3.061-0.236l-3.4-3.621c-0.412-0.44-0.633-1.026-0.613-1.63c0.016-0.534,0.205-1.056,0.572-1.439
	c0.098-0.103,0.408-0.396,0.408-0.396C5.338,3.56,5.51,3.495,5.689,3.5c0.178,0.006,0.346,0.082,0.469,0.212l1.061,1.131
	c0.256,0.271,0.24,0.697-0.029,0.951L6.926,6.042l2.549,2.717L9.738,8.51c0.131-0.123,0.305-0.188,0.482-0.183
	c0.178,0.006,0.348,0.082,0.469,0.212l1.063,1.131c0.123,0.13,0.188,0.303,0.182,0.481C11.928,10.332,11.852,10.5,11.723,10.622z"/>
</svg>
