<?xml version="1.0" encoding="utf-8"?>
<!-- Generator: Adobe Illustrator 16.0.0, SVG Export Plug-In . SVG Version: 6.00 Build 0)  -->
<!DOCTYPE svg PUBLIC "-//W3C//DTD SVG 1.1//EN" "http://www.w3.org/Graphics/SVG/1.1/DTD/svg11.dtd">
<svg version="1.1" id="Capa_1" xmlns="http://www.w3.org/2000/svg" xmlns:xlink="http://www.w3.org/1999/xlink" x="0px" y="0px"
	 width="50px" height="54px" viewBox="0 0 50 54" enable-background="new 0 0 50 54" xml:space="preserve">
<g>
	<g>
		<polygon fill="#F2B822" points="14.563,40.359 0,23.296 0,9.125 44.631,0.124 50,15.635 39.843,30.968 17.825,33.076 		"/>
		<polygon fill="#EA8E27" points="0,9.125 20.017,10.956 35.774,1.907 		"/>
		<polyline fill="#F8D518" points="44.631,0.124 33.708,23.296 39.843,30.968 50,15.635 		"/>
		<polygon fill="#ED9E1A" points="14.563,40.359 11.301,21.779 0,23.296 		"/>
		<polyline fill="#EFA825" points="0,9.125 20.017,10.956 11.301,21.779 0,23.296 		"/>
		<polyline fill="#F2B822" points="14.563,40.359 17.896,33.07 11.301,21.779 		"/>
		<polyline fill="#F2B822" points="24.302,32.452 33.708,23.296 39.843,30.968 		"/>
		<polyline fill="#F2B822" points="44.631,0.124 37.372,15.539 30.246,5.093 35.774,1.907 		"/>
		<polyline fill="#E98C00" points="24.302,32.452 33.708,23.296 11.301,21.779 17.825,33.076 		"/>
		<polyline fill="#EFA825" points="30.246,5.093 24.999,22.713 33.708,23.296 37.372,15.539 		"/>
		<polyline fill="#F8D518" points="11.202,21.791 24.999,22.713 20.017,10.956 		"/>
	</g>
	<g>
		<g>
			<rect x="3.346" y="42.895" fill="#FFFFFF" width="2.383" height="10.618"/>
			<polygon fill="#FFFFFF" points="5.245,39.862 3.346,40.359 3.346,38.224 5.729,38.224 			"/>
		</g>
		<g>
			<rect x="21.276" y="42.895" fill="#FFFFFF" width="2.397" height="10.618"/>
			<polygon fill="#FFFFFF" points="26.368,44.546 24.464,45.037 24.464,42.895 26.863,42.895 			"/>
		</g>
		<path fill="#FFFFFF" d="M15.695,50.135c-0.473,1.017-0.999,1.521-1.953,1.521c-1.488,0-2.689-1.421-2.689-3.371
			c0-1.938,1.201-3.386,2.689-3.386c1.056,0,1.659,0.684,2.104,1.872h2.255c-0.574-2.414-2.142-4.063-4.358-4.063
			c-2.688,0-4.875,2.431-4.875,5.576c0,3.155,2.188,5.545,4.875,5.545c2.114,0,3.625-1.464,4.272-3.694H15.695z"/>
		<path fill="#FFFFFF" d="M37.166,48.877h0.631c0.018-0.189,0.038-0.398,0.038-0.593c0-3.153-1.283-5.727-4.436-5.727
			c-2.793,0-4.867,2.573-4.867,5.727c0,3.167,2.007,5.522,4.867,5.59c2.462,0.056,4.184-1.331,4.184-1.331L36.8,50.978
			c0,0-1.418,0.92-3.4,0.819c-1.487-0.076-2.11-1.254-2.326-2.92h4.491H37.166z M31.178,47.152c0.377-1.377,0.98-2.371,2.222-2.371
			c1.402,0,1.89,0.994,2.12,2.371H31.178z"/>
		<path fill="#FFFFFF" d="M47.767,46.947h-1.796c-3.084,0-4.434,1.611-4.653,3.139c-0.229,1.556,0.673,3.067,2.114,3.508
			c0.342,0.1,0.658,0.136,0.995,0.136c1.179,0,2.379-0.496,3.344-1.052l0.624,0.835H50l-0.01-7.498
			c0.024-0.304,0.014-1.367-0.799-2.27c-0.719-0.788-1.796-1.188-3.221-1.188c-2.113,0-3.161,0.884-3.662,1.636
			c-0.579,0.818-0.584,1.631-0.584,1.777h2.211c0-0.042,0.031-1.189,2.035-1.189c0.74,0,1.271,0.152,1.561,0.443
			c0.248,0.282,0.239,0.633,0.239,0.633L47.767,46.947z M44.082,51.463c-0.4-0.121-0.636-0.589-0.563-1.044
			c0.104-0.791,1.033-1.542,2.451-1.542h1.796v1.659C46.222,51.642,44.975,51.721,44.082,51.463z"/>
	</g>
</g>
</svg>
